%YAML 1.1
%TAG !u! tag:unity3d.com,2011:
--- !u!1 &1870821838138038672
GameObject:
  m_ObjectHideFlags: 0
  m_CorrespondingSourceObject: {fileID: 0}
  m_PrefabInstance: {fileID: 0}
  m_PrefabAsset: {fileID: 0}
  serializedVersion: 6
  m_Component:
  - component: {fileID: 7856468866248812664}
  - component: {fileID: 6018264715868890726}
  m_Layer: 0
  m_Name: ItemEraser
  m_TagString: Untagged
  m_Icon: {fileID: 0}
  m_NavMeshLayer: 0
  m_StaticEditorFlags: 0
  m_IsActive: 1
--- !u!4 &7856468866248812664
Transform:
  m_ObjectHideFlags: 0
  m_CorrespondingSourceObject: {fileID: 0}
  m_PrefabInstance: {fileID: 0}
  m_PrefabAsset: {fileID: 0}
  m_GameObject: {fileID: 1870821838138038672}
  m_LocalRotation: {x: 0, y: 0, z: 0, w: 1}
  m_LocalPosition: {x: -13.755284, y: 0.14052773, z: 5.055316}
  m_LocalScale: {x: 1, y: 1, z: 1}
  m_Children: []
  m_Father: {fileID: 0}
  m_RootOrder: 0
  m_LocalEulerAnglesHint: {x: 0, y: 0, z: 0}
--- !u!114 &6018264715868890726
MonoBehaviour:
  m_ObjectHideFlags: 0
  m_CorrespondingSourceObject: {fileID: 0}
  m_PrefabInstance: {fileID: 0}
  m_PrefabAsset: {fileID: 0}
  m_GameObject: {fileID: 1870821838138038672}
  m_Enabled: 1
  m_EditorHideFlags: 0
  m_Script: {fileID: 11500000, guid: 49f50551bd9e585478c71ea48b3336af, type: 3}
  m_Name: 
  m_EditorClassIdentifier: 
  icon: {fileID: 21300000, guid: 33d423c977d58ed40a56208343273493, type: 3}
  rayData: {fileID: 11400000, guid: 2bda3a52703f83b47a046e4348474eb4, type: 2}
  rayOrigin: {fileID: 7856468866248812664}
  direction: {x: 0, y: -1}
  eraseInput: {fileID: -6322895753885752350, guid: faaf003aa020246479a9c0fd6bab37ed, type: 3}
